.............
----------------------------------------------------------------------
Ran 13 tests in 0.001s

OK
Name               Stmts   Miss  Cover   Missing
------------------------------------------------
Diplomacy.py          64      0   100%
TestDiplomacy.py      61      0   100%
------------------------------------------------
TOTAL                125      0   100%
